{
  "type": "mysql",
  "host": "mysqldb",
  "port": 3306,
  "username": "root",
  "password": "12345",
  "database": "online_market",
  "synchronize": true,
  "logging": false,
  "entities": ["src/entity/*.ts"],
  "migrations": ["src/migration/**/*.ts"],
  "subscribers": ["src/subscriber/**/*.ts"],
  "cli": {
    "entitiesDir": "src/entity",
    "migrationsDir": "src/migration",
    "subscribersDir": "src/subscriber"
  }
}
